%YAML 1.1
%TAG !u! tag:unity3d.com,2011:
--- !u!78 &1
TagManager:
  serializedVersion: 2
  tags:
  - DeathVolume
  - Checkpoint
  - GameManager
  - PauseMenu
  - PowerUp
  - Enemy
  - PlayerAttack
  - EnemySpawn
  - EnemyAttack
  - Environment
  - AIMovement
  - CheckpointCanvas
  layers:
  - Default
  - TransparentFX
  - Ignore Raycast
  - 
  - Water
  - UI
  - 
  - 
  - Player
  - DeathVolume
  - Checkpoint
  - Enemy
  - Environment
  - PlayerAttack
  - AIMovement
  - CheckpointCanvas
  - 
  - 
  - 
  - 
  - 
  - 
  - 
  - 
  - 
  - 
  - 
  - 
  - 
  - 
  - 
  - 
  m_SortingLayers:
  - name: Default
    uniqueID: 0
    locked: 0
